#r_strip_24,fpga_1,asic_top,ch_30,tdc_15
301,17
302,15
303,20
304,16
305,20
306,20
307,18
308,16
309,22
310,22
311,17
312,19
313,19
314,21
315,14
316,21
317,23
318,25
319,26
320,19
321,18
322,20
323,17
324,19
325,19
326,14
327,13
328,20
329,25
330,18
331,15
332,13
333,22
334,20
335,15
336,14
337,20
338,20
339,19
340,22
341,23
342,18
343,13
344,21
345,16
346,17
347,19
348,18
349,14
350,12
351,14
352,16
353,18
354,18
355,17
356,22
357,15
358,19
359,21
360,23
361,10
362,16
363,21
364,16
365,16
366,18
367,19
368,26
369,17
370,18
371,21
372,17
373,17
374,16
375,19
376,15
377,17
378,12
379,20
380,22
381,11
382,14
383,19
384,22
385,16
386,15
387,21
388,15
389,17
390,18
391,22
392,17
393,22
394,15
395,13
396,13
397,19
398,20
399,18
400,11
401,22
402,15
403,24
404,20
405,18
406,12
407,22
408,27
409,18
410,16
411,11
412,16
413,21
414,19
415,20
416,14
417,20
418,26
419,58
420,95
421,100
422,100
423,100
424,100
425,100
426,100
427,100
428,100
429,100
430,100
431,100
432,100
433,100
434,100
435,100
436,100
437,100
438,100
439,100
440,100
441,100
442,100
443,100
444,100
445,100
446,96
447,90
448,64
449,53
450,40
451,22
452,10
453,3
454,0
#strip_24,fpga_1,asic_top,ch_28,tdc_14
301,15
302,15
303,18
304,14
305,14
306,17
307,19
308,17
309,22
310,12
311,21
312,20
313,17
314,14
315,21
316,12
317,26
318,15
319,25
320,15
321,17
322,21
323,24
324,22
325,17
326,21
327,19
328,16
329,16
330,18
331,13
332,18
333,20
334,16
335,28
336,17
337,21
338,24
339,20
340,13
341,22
342,13
343,19
344,13
345,14
346,12
347,21
348,11
349,21
350,16
351,11
352,21
353,17
354,21
355,18
356,24
357,21
358,22
359,19
360,13
361,15
362,19
363,16
364,19
365,16
366,22
367,19
368,10
369,21
370,13
371,21
372,22
373,25
374,26
375,21
376,24
377,17
378,22
379,19
380,19
381,21
382,22
383,10
384,19
385,15
386,19
387,17
388,14
389,18
390,20
391,19
392,16
393,11
394,17
395,19
396,16
397,17
398,17
399,18
400,14
401,19
402,11
403,13
404,18
405,20
406,23
407,15
408,17
409,17
410,23
411,23
412,19
413,15
414,19
415,15
416,22
417,12
418,21
419,63
420,96
421,100
422,100
423,100
424,100
425,100
426,100
427,96
428,89
429,79
430,76
431,84
432,93
433,96
434,95
435,100
436,100
437,100
438,100
439,100
440,100
441,100
442,100
443,100
444,99
445,96
446,96
447,86
448,66
449,50
450,33
451,26
452,11
453,3
454,1
455,0
#r_strip_25,fpga_1,asic_top,ch_26,tdc_13
301,25
302,20
303,20
304,18
305,19
306,15
307,18
308,13
309,22
310,18
311,13
312,15
313,20
314,26
315,13
316,29
317,16
318,11
319,20
320,17
321,27
322,13
323,11
324,19
325,13
326,15
327,18
328,19
329,20
330,18
331,18
332,12
333,14
334,15
335,19
336,17
337,24
338,15
339,19
340,22
341,20
342,9
343,15
344,14
345,16
346,16
347,21
348,19
349,16
350,16
351,16
352,15
353,23
354,18
355,17
356,14
357,18
358,15
359,16
360,21
361,18
362,20
363,13
364,17
365,28
366,15
367,22
368,13
369,15
370,23
371,15
372,23
373,16
374,26
375,17
376,19
377,20
378,15
379,15
380,18
381,14
382,15
383,19
384,21
385,17
386,25
387,15
388,19
389,19
390,24
391,22
392,23
393,19
394,12
395,17
396,17
397,18
398,15
399,22
400,17
401,14
402,15
403,17
404,17
405,16
406,25
407,12
408,24
409,23
410,16
411,14
412,27
413,17
414,15
415,16
416,19
417,21
418,31
419,62
420,93
421,100
422,100
423,99
424,94
425,92
426,82
427,82
428,71
429,69
430,72
431,75
432,91
433,93
434,94
435,91
436,90
437,97
438,87
439,91
440,84
441,77
442,57
443,42
444,29
445,14
446,7
447,3
448,0
#strip_25,fpga_1,asic_top,ch_24,tdc_12
301,13
302,22
303,22
304,14
305,15
306,14
307,22
308,15
309,17
310,21
311,15
312,19
313,15
314,12
315,17
316,18
317,18
318,23
319,18
320,24
321,19
322,22
323,20
324,30
325,23
326,20
327,16
328,24
329,15
330,11
331,17
332,15
333,13
334,17
335,27
336,19
337,15
338,12
339,16
340,17
341,14
342,23
343,23
344,16
345,21
346,25
347,13
348,20
349,18
350,13
351,14
352,15
353,12
354,16
355,19
356,19
357,22
358,22
359,25
360,17
361,21
362,14
363,19
364,22
365,20
366,24
367,14
368,22
369,20
370,16
371,11
372,19
373,24
374,20
375,21
376,15
377,18
378,16
379,21
380,14
381,22
382,18
383,19
384,24
385,12
386,15
387,25
388,25
389,18
390,17
391,20
392,15
393,10
394,25
395,14
396,18
397,19
398,14
399,22
400,23
401,17
402,18
403,13
404,14
405,21
406,13
407,18
408,16
409,18
410,20
411,15
412,24
413,18
414,14
415,24
416,22
417,18
418,29
419,71
420,93
421,100
422,100
423,100
424,98
425,91
426,88
427,81
428,79
429,72
430,70
431,80
432,87
433,94
434,98
435,98
436,95
437,99
438,97
439,97
440,95
441,97
442,99
443,95
444,83
445,78
446,55
447,35
448,13
449,9
450,3
451,0
#r_strip_26,fpga_1,asic_top,ch_22,tdc_11
301,15
302,11
303,16
304,18
305,14
306,22
307,18
308,25
309,16
310,19
311,23
312,17
313,16
314,14
315,20
316,16
317,21
318,20
319,21
320,20
321,18
322,18
323,16
324,16
325,22
326,24
327,11
328,18
329,16
330,21
331,13
332,16
333,24
334,19
335,17
336,10
337,16
338,15
339,21
340,17
341,20
342,24
343,23
344,16
345,22
346,15
347,16
348,14
349,15
350,13
351,22
352,21
353,20
354,24
355,8
356,12
357,20
358,13
359,13
360,20
361,19
362,21
363,27
364,24
365,15
366,17
367,18
368,21
369,13
370,21
371,14
372,20
373,18
374,17
375,21
376,14
377,21
378,16
379,15
380,24
381,17
382,14
383,16
384,17
385,20
386,15
387,19
388,16
389,17
390,18
391,14
392,16
393,16
394,17
395,17
396,22
397,20
398,17
399,24
400,23
401,15
402,16
403,9
404,11
405,23
406,21
407,17
408,16
409,22
410,10
411,14
412,22
413,22
414,17
415,14
416,20
417,24
418,27
419,62
420,95
421,100
422,100
423,100
424,100
425,100
426,100
427,100
428,100
429,100
430,100
431,100
432,100
433,99
434,99
435,100
436,98
437,98
438,99
439,97
440,98
441,97
442,97
443,96
444,79
445,64
446,52
447,28
448,11
449,1
450,0
#strip_26,fpga_1,asic_top,ch_20,tdc_10
301,18
302,16
303,17
304,17
305,14
306,19
307,13
308,18
309,18
310,17
311,16
312,17
313,23
314,20
315,16
316,20
317,12
318,20
319,22
320,12
321,20
322,23
323,18
324,18
325,12
326,12
327,22
328,13
329,17
330,22
331,16
332,20
333,23
334,24
335,20
336,16
337,12
338,17
339,19
340,21
341,23
342,17
343,13
344,17
345,21
346,27
347,15
348,23
349,22
350,15
351,23
352,17
353,20
354,16
355,19
356,19
357,17
358,22
359,23
360,24
361,22
362,20
363,21
364,21
365,17
366,24
367,22
368,16
369,21
370,22
371,15
372,13
373,18
374,16
375,23
376,14
377,16
378,28
379,20
380,17
381,25
382,16
383,13
384,16
385,12
386,26
387,22
388,17
389,19
390,21
391,18
392,22
393,15
394,14
395,24
396,28
397,21
398,16
399,17
400,16
401,14
402,24
403,19
404,19
405,21
406,13
407,16
408,24
409,19
410,20
411,22
412,9
413,19
414,21
415,14
416,15
417,20
418,24
419,54
420,96
421,100
422,100
423,100
424,100
425,96
426,91
427,83
428,78
429,57
430,73
431,85
432,95
433,96
434,96
435,91
436,91
437,84
438,71
439,57
440,41
441,37
442,17
443,11
444,6
445,1
446,1
447,0
#r_strip_27,fpga_1,asic_top,ch_18,tdc_9
301,28
302,25
303,14
304,20
305,20
306,21
307,22
308,22
309,13
310,22
311,22
312,16
313,19
314,20
315,19
316,20
317,12
318,12
319,13
320,23
321,14
322,14
323,18
324,21
325,28
326,19
327,16
328,12
329,17
330,13
331,17
332,23
333,25
334,18
335,18
336,16
337,23
338,21
339,13
340,12
341,20
342,16
343,15
344,22
345,23
346,25
347,24
348,13
349,13
350,14
351,12
352,14
353,9
354,16
355,30
356,21
357,23
358,11
359,18
360,16
361,14
362,16
363,17
364,16
365,20
366,21
367,24
368,26
369,18
370,18
371,17
372,13
373,19
374,25
375,14
376,19
377,18
378,13
379,13
380,18
381,19
382,16
383,18
384,20
385,14
386,16
387,22
388,14
389,22
390,20
391,16
392,21
393,16
394,16
395,19
396,15
397,23
398,19
399,15
400,23
401,13
402,19
403,16
404,23
405,20
406,19
407,23
408,26
409,19
410,14
411,18
412,20
413,21
414,19
415,12
416,18
417,26
418,27
419,66
420,89
421,99
422,100
423,97
424,85
425,83
426,75
427,75
428,70
429,75
430,65
431,69
432,85
433,91
434,81
435,73
436,67
437,60
438,61
439,43
440,29
441,18
442,2
443,1
444,0
#strip_27,fpga_1,asic_top,ch_16,tdc_8
301,25
302,21
303,16
304,23
305,16
306,18
307,18
308,27
309,10
310,12
311,17
312,18
313,19
314,17
315,21
316,28
317,16
318,22
319,16
320,24
321,14
322,13
323,28
324,20
325,14
326,19
327,13
328,23
329,17
330,14
331,14
332,10
333,23
334,17
335,22
336,16
337,11
338,14
339,20
340,21
341,17
342,19
343,18
344,19
345,18
346,15
347,13
348,13
349,18
350,13
351,20
352,23
353,20
354,24
355,21
356,17
357,12
358,15
359,16
360,19
361,17
362,20
363,22
364,18
365,17
366,18
367,15
368,20
369,19
370,15
371,18
372,22
373,16
374,18
375,13
376,15
377,16
378,29
379,16
380,21
381,19
382,20
383,13
384,13
385,18
386,15
387,19
388,24
389,16
390,22
391,20
392,16
393,28
394,15
395,20
396,20
397,18
398,15
399,24
400,17
401,14
402,26
403,12
404,20
405,16
406,20
407,17
408,12
409,22
410,15
411,22
412,16
413,21
414,20
415,19
416,13
417,20
418,27
419,56
420,95
421,100
422,100
423,100
424,100
425,98
426,97
427,94
428,79
429,72
430,80
431,85
432,90
433,93
434,92
435,78
436,79
437,72
438,63
439,50
440,33
441,12
442,7
443,5
444,1
445,0
#r_strip_28,fpga_1,asic_top,ch_14,tdc_7
301,15
302,25
303,22
304,23
305,16
306,17
307,16
308,20
309,25
310,20
311,19
312,10
313,18
314,16
315,18
316,8
317,12
318,18
319,19
320,23
321,18
322,17
323,22
324,23
325,16
326,21
327,21
328,14
329,18
330,24
331,15
332,14
333,22
334,18
335,21
336,19
337,24
338,22
339,18
340,20
341,22
342,12
343,22
344,21
345,12
346,23
347,22
348,19
349,18
350,15
351,15
352,19
353,15
354,18
355,20
356,19
357,18
358,13
359,23
360,15
361,19
362,18
363,15
364,21
365,22
366,20
367,19
368,11
369,20
370,19
371,8
372,16
373,16
374,17
375,16
376,18
377,17
378,21
379,20
380,22
381,18
382,16
383,16
384,18
385,17
386,17
387,19
388,19
389,21
390,18
391,12
392,21
393,21
394,18
395,17
396,18
397,19
398,21
399,11
400,13
401,18
402,19
403,15
404,13
405,15
406,22
407,23
408,11
409,19
410,17
411,23
412,16
413,20
414,16
415,17
416,21
417,23
418,21
419,66
420,94
421,99
422,100
423,97
424,85
425,78
426,80
427,76
428,72
429,68
430,73
431,80
432,85
433,94
434,97
435,87
436,80
437,82
438,65
439,49
440,32
441,22
442,12
443,3
444,0
#strip_28,fpga_1,asic_top,ch_12,tdc_6
301,19
302,26
303,15
304,20
305,24
306,23
307,20
308,17
309,12
310,14
311,13
312,18
313,15
314,17
315,18
316,18
317,17
318,16
319,14
320,25
321,25
322,12
323,25
324,15
325,24
326,16
327,17
328,15
329,17
330,21
331,20
332,20
333,18
334,22
335,17
336,10
337,17
338,20
339,12
340,20
341,16
342,20
343,17
344,14
345,13
346,15
347,19
348,20
349,14
350,21
351,14
352,15
353,23
354,18
355,16
356,21
357,25
358,15
359,14
360,13
361,17
362,25
363,24
364,19
365,16
366,18
367,12
368,18
369,22
370,16
371,14
372,16
373,22
374,16
375,18
376,10
377,14
378,18
379,18
380,17
381,22
382,19
383,15
384,16
385,8
386,14
387,17
388,13
389,15
390,17
391,23
392,19
393,19
394,16
395,18
396,13
397,19
398,20
399,19
400,26
401,12
402,10
403,26
404,24
405,27
406,10
407,21
408,17
409,16
410,19
411,10
412,13
413,18
414,16
415,17
416,18
417,9
418,19
419,65
420,89
421,100
422,100
423,100
424,98
425,93
426,91
427,73
428,72
429,70
430,58
431,83
432,93
433,93
434,97
435,93
436,90
437,81
438,74
439,57
440,50
441,36
442,20
443,7
444,9
445,8
446,2
447,0
#r_strip_29,fpga_1,asic_top,ch_10,tdc_5
301,13
302,21
303,18
304,18
305,16
306,22
307,18
308,24
309,19
310,17
311,25
312,25
313,14
314,20
315,14
316,17
317,14
318,18
319,14
320,15
321,15
322,17
323,12
324,16
325,28
326,21
327,15
328,18
329,13
330,14
331,12
332,19
333,13
334,15
335,27
336,21
337,19
338,17
339,18
340,24
341,14
342,25
343,17
344,17
345,19
346,16
347,15
348,14
349,16
350,15
351,13
352,18
353,13
354,17
355,20
356,13
357,21
358,28
359,16
360,22
361,18
362,15
363,14
364,18
365,13
366,23
367,15
368,23
369,20
370,15
371,22
372,28
373,19
374,25
375,13
376,16
377,19
378,23
379,17
380,14
381,19
382,19
383,20
384,19
385,18
386,26
387,17
388,19
389,15
390,16
391,28
392,16
393,20
394,16
395,21
396,12
397,19
398,18
399,17
400,26
401,27
402,21
403,12
404,17
405,23
406,15
407,10
408,27
409,21
410,14
411,21
412,15
413,24
414,20
415,18
416,20
417,23
418,25
419,58
420,93
421,100
422,100
423,99
424,97
425,96
426,97
427,91
428,83
429,70
430,75
431,72
432,91
433,99
434,97
435,90
436,92
437,82
438,69
439,56
440,36
441,21
442,19
443,5
444,2
445,0
#strip_29,fpga_1,asic_top,ch_8,tdc_4
301,19
302,22
303,17
304,22
305,24
306,22
307,13
308,20
309,20
310,12
311,22
312,22
313,22
314,22
315,17
316,15
317,15
318,17
319,27
320,15
321,22
322,16
323,19
324,11
325,17
326,18
327,15
328,16
329,15
330,14
331,22
332,21
333,12
334,20
335,21
336,6
337,13
338,15
339,18
340,20
341,19
342,14
343,13
344,20
345,15
346,22
347,26
348,22
349,10
350,22
351,13
352,17
353,13
354,21
355,10
356,20
357,12
358,14
359,18
360,11
361,18
362,18
363,15
364,18
365,12
366,14
367,12
368,21
369,18
370,15
371,13
372,21
373,16
374,15
375,15
376,19
377,17
378,17
379,22
380,17
381,17
382,17
383,22
384,17
385,22
386,18
387,22
388,15
389,19
390,28
391,16
392,20
393,24
394,16
395,19
396,25
397,14
398,17
399,14
400,16
401,16
402,16
403,14
404,16
405,20
406,26
407,23
408,22
409,10
410,22
411,13
412,16
413,19
414,15
415,21
416,14
417,18
418,29
419,53
420,92
421,98
422,100
423,100
424,100
425,100
426,100
427,100
428,100
429,100
430,100
431,100
432,100
433,100
434,100
435,100
436,100
437,100
438,100
439,100
440,100
441,100
442,100
443,100
444,100
445,100
446,100
447,100
448,100
449,99
450,98
451,92
452,81
453,67
454,44
455,27
456,12
457,4
458,2
459,1
460,1
461,0
#r_strip_30,fpga_1,asic_top,ch_6,tdc_3
301,22
302,16
303,11
304,11
305,21
306,16
307,17
308,13
309,18
310,21
311,20
312,20
313,20
314,13
315,18
316,25
317,28
318,15
319,25
320,22
321,14
322,16
323,27
324,20
325,24
326,16
327,13
328,13
329,15
330,10
331,22
332,18
333,25
334,19
335,15
336,23
337,18
338,16
339,17
340,20
341,6
342,22
343,22
344,20
345,12
346,15
347,17
348,18
349,24
350,14
351,15
352,9
353,16
354,27
355,26
356,20
357,21
358,20
359,26
360,17
361,14
362,10
363,22
364,25
365,18
366,17
367,18
368,17
369,15
370,23
371,24
372,20
373,18
374,17
375,12
376,19
377,16
378,15
379,20
380,21
381,23
382,16
383,14
384,20
385,23
386,16
387,16
388,16
389,21
390,20
391,19
392,14
393,17
394,14
395,15
396,14
397,15
398,20
399,14
400,17
401,14
402,14
403,21
404,21
405,25
406,22
407,17
408,17
409,21
410,22
411,25
412,25
413,15
414,11
415,18
416,19
417,20
418,24
419,70
420,94
421,100
422,100
423,100
424,100
425,100
426,100
427,100
428,100
429,100
430,100
431,100
432,100
433,100
434,100
435,100
436,100
437,100
438,100
439,93
440,92
441,81
442,63
443,48
444,33
445,23
446,10
447,0
#strip_30,fpga_1,asic_top,ch_4,tdc_2
301,26
302,16
303,17
304,15
305,20
306,18
307,20
308,17
309,17
310,20
311,17
312,20
313,16
314,15
315,21
316,21
317,23
318,19
319,13
320,25
321,11
322,16
323,29
324,19
325,23
326,17
327,18
328,15
329,13
330,15
331,16
332,16
333,24
334,16
335,22
336,25
337,12
338,22
339,21
340,22
341,15
342,22
343,26
344,14
345,14
346,15
347,17
348,15
349,11
350,17
351,18
352,17
353,16
354,18
355,22
356,26
357,20
358,22
359,18
360,15
361,12
362,18
363,19
364,12
365,13
366,17
367,17
368,18
369,20
370,20
371,19
372,14
373,10
374,18
375,13
376,18
377,17
378,18
379,23
380,22
381,19
382,26
383,18
384,19
385,16
386,21
387,19
388,15
389,26
390,27
391,13
392,13
393,15
394,14
395,13
396,14
397,16
398,16
399,21
400,18
401,20
402,12
403,15
404,18
405,12
406,14
407,16
408,21
409,12
410,16
411,20
412,12
413,19
414,19
415,22
416,12
417,22
418,28
419,57
420,98
421,100
422,100
423,100
424,81
425,80
426,77
427,81
428,73
429,69
430,62
431,75
432,86
433,95
434,99
435,90
436,79
437,73
438,60
439,55
440,33
441,20
442,10
443,2
444,3
445,2
446,0
#r_strip_31,fpga_1,asic_top,ch_2,tdc_1
301,21
302,16
303,19
304,19
305,23
306,24
307,21
308,17
309,20
310,24
311,23
312,21
313,14
314,21
315,16
316,13
317,21
318,15
319,20
320,21
321,14
322,18
323,20
324,26
325,19
326,20
327,19
328,20
329,22
330,19
331,17
332,23
333,23
334,18
335,22
336,17
337,16
338,19
339,15
340,17
341,23
342,22
343,22
344,13
345,13
346,18
347,18
348,17
349,17
350,13
351,17
352,20
353,16
354,21
355,21
356,17
357,17
358,14
359,13
360,18
361,24
362,18
363,19
364,25
365,11
366,12
367,21
368,13
369,20
370,16
371,17
372,19
373,19
374,19
375,29
376,19
377,21
378,26
379,21
380,20
381,29
382,21
383,16
384,22
385,18
386,16
387,19
388,22
389,14
390,19
391,15
392,18
393,18
394,27
395,19
396,31
397,33
398,35
399,26
400,19
401,16
402,20
403,20
404,19
405,10
406,11
407,17
408,17
409,18
410,12
411,12
412,28
413,26
414,15
415,22
416,20
417,16
418,17
419,64
420,92
421,99
422,100
423,100
424,100
425,100
426,100
427,100
428,100
429,100
430,100
431,100
432,100
433,100
434,100
435,100
436,100
437,100
438,100
439,100
440,100
441,100
442,100
443,100
444,100
445,100
446,100
447,100
448,100
449,100
450,100
451,100
452,100
453,100
454,100
455,100
456,100
457,100
458,100
459,100
460,100
461,100
462,100
463,100
464,100
465,100
466,100
467,100
468,100
469,100
470,100
471,100
472,100
473,100
474,100
475,100
476,100
477,100
478,100
479,100
480,100
481,100
482,100
483,100
484,100
485,100
486,100
487,100
488,100
489,100
490,100
491,100
492,100
493,100
494,100
495,100
496,100
497,100
498,100
499,100
500,100
501,100
502,100
503,100
504,100
505,100
506,100
507,100
508,100
509,100
510,100
511,100
512,100
513,100
514,100
515,100
516,100
517,100
518,100
519,100
520,100
521,100
522,100
523,100
524,100
525,100
526,100
527,100
528,100
529,99
530,100
531,98
532,96
533,94
534,77
535,73
536,65
537,57
538,63
539,52
540,42
541,23
542,18
543,22
544,2
545,3
546,1
547,1
548,0
#strip_31,fpga_1,asic_top,ch_0,tdc_0
301,17
302,17
303,22
304,20
305,22
306,22
307,23
308,15
309,18
310,20
311,13
312,15
313,15
314,19
315,11
316,23
317,16
318,11
319,13
320,16
321,22
322,22
323,22
324,16
325,19
326,17
327,15
328,27
329,19
330,21
331,14
332,20
333,18
334,13
335,16
336,17
337,21
338,28
339,24
340,18
341,18
342,22
343,19
344,29
345,24
346,19
347,21
348,21
349,21
350,14
351,21
352,10
353,18
354,17
355,21
356,16
357,13
358,18
359,20
360,16
361,19
362,21
363,23
364,12
365,16
366,22
367,20
368,21
369,22
370,17
371,19
372,19
373,26
374,21
375,20
376,20
377,30
378,15
379,17
380,10
381,21
382,11
383,22
384,18
385,21
386,17
387,19
388,17
389,16
390,17
391,14
392,11
393,19
394,23
395,18
396,25
397,20
398,26
399,22
400,24
401,14
402,20
403,14
404,23
405,17
406,17
407,21
408,17
409,20
410,13
411,21
412,22
413,21
414,18
415,13
416,18
417,16
418,20
419,61
420,91
421,100
422,100
423,100
424,100
425,100
426,100
427,100
428,100
429,100
430,100
431,100
432,100
433,100
434,100
435,100
436,100
437,100
438,100
439,100
440,100
441,100
442,100
443,100
444,100
445,99
446,92
447,87
448,78
449,51
450,26
451,18
452,7
453,4
454,1
455,0
