Scan number :  321

HV point :  8

max trigger :  500

Scan number :  321

HV point :  8

max trigger :  500

FEB type :  FEBv2_2
TestBeamaAt904_RE31_186_FEBv2_2_14_904_v_4_HV_8_SN_321_MaxTrig_500
## Connected to FC7 board #
################################################
Write CDCE configuration : 11%Write CDCE configuration : 22%Write CDCE configuration : 33%Write CDCE configuration : 44%Write CDCE configuration : 56%Write CDCE configuration : 67%Write CDCE configuration : 78%Write CDCE configuration : 89%Write CDCE configuration : 100%
Read CDCE configuration : 12%Read CDCE configuration : 25%Read CDCE configuration : 38%Read CDCE configuration : 50%Read CDCE configuration : 62%Read CDCE configuration : 75%Read CDCE configuration : 88%Read CDCE configuration : 100%
[1;32mCDCE configuration [OK] [0m
################################################
GBT-FPGA reseting...
[1;32mGBT-FPGA ready [OK][0m
FEB not configured : loading SCA configuration...
################################################
Write SCA configuration : 17%Write SCA configuration : 33%Write SCA configuration : 50%Write SCA configuration : 67%Write SCA configuration : 83%Write SCA configuration : 100%
[1;32mSCA Configuration [OK][0m
[1;31mPower_supplies FPGA OFF ![0m
[1;31mShutdown 2V ![0m
[1;31mShutdown 4V ![0m
Powerup 2V[1;32m [OK][0m
Powerup 4V[1;32m [OK][0m
Power_supplies FPGA ON[1;32m [OK][0m
FPGA middle configured[1;32m [OK][0m
FPGA left configured[1;32m [OK][0m
FPGA right configured[1;32m [OK][0m
[1;93mReset FPGA[0m
******************************
*** ACQUISITION PARAMETERS ***
******************************
STATE                 : idle
MODE                  : Wait_orbit
NB_FRAME              : 100
TIME WINDOW           : 0.9999750000000001ms
CIRCULAR_BUFFER_SIZE  : 10000
FLAG_ACQ_DONE         : False
NB_DATA_IN_FIFO_FRAME : 0
/dev/shm/mgroc/RE31_186_FEBv2_2_14_904_4.json already download, Exiting
fpga_0 [0, 1, 2, 3, 4, 5, 6, 7, 8, 9, 10, 11, 12, 13, 14, 15, 16, 17, 18, 19, 20, 21, 22, 23, 24, 25, 26, 27, 28, 29, 30, 31]
fpga_1 [0, 1, 2, 3, 4, 5, 6, 7, 8, 9, 10, 11, 12, 13, 14, 15, 16, 17, 18, 19, 20, 21, 22, 23, 24, 25, 26, 27, 28, 29, 30, 31]
fpga_2 [0, 1, 2, 3, 4, 5, 6, 7, 8, 9, 10, 11, 12, 13, 14, 15, 16, 17, 18, 19, 20, 21, 22, 23, 24, 25, 26, 27, 28, 29, 30, 31]
starting a new run, please enter description for future monitoring. Enter blank line to end input
in GetRun: TestBeamaAt904
<pymongo.results.InsertOneResult object at 0x7f61880273c8>
******************************
*** ACQUISITION PARAMETERS ***
******************************
STATE                 : idle
MODE                  : Wait_orbit
NB_FRAME              : 100
TIME WINDOW           : 0.9999750000000001ms
CIRCULAR_BUFFER_SIZE  : 10000
FLAG_ACQ_DONE         : False
NB_DATA_IN_FIFO_FRAME : 0
